{
    "width"      : 640,
    "height"     : 340,
    "fps"        : 25,
    "x264_crf"   : 23,
    "output_dir" : ".",

    "render_alpha"   : false,

    "phantomjs_path" : "/usr/bin/phantomjs"
}
